PART ONE: Cluster Analysis of African Health Outcomes
…
The dataset contains country-level health outcomes projections from the International Futures model from 2015-2065. For this clustering exercise, I am using the 2019 results.

(df <- readxl::read_xlsx('.//data/cluster_health_afr_14mar2019.xlsx')) 

# A tibble: 1,080 × 56
   variable      country dim   unit  scenario `2015` `2016` `2017` `2018` `2019`
   <chr>         <chr>   <chr> <chr> <chr>     <dbl>  <dbl>  <dbl>  <dbl>  <dbl>
 1 DR_OthCommum… Algeria Total <NA>  Base      0.445  0.425  0.41   0.394  0.377
 2 DR_MaligNeoPl Algeria Total <NA>  Base      0.512  0.517  0.521  0.526  0.531
 3 DR_CardioVasc Algeria Total <NA>  Base      1.76   1.80   1.83   1.86   1.89 
 4 DR_Digestive  Algeria Total <NA>  Base      0.063  0.064  0.064  0.064  0.065
 5 DR_Respirato… Algeria Total <NA>  Base      0.153  0.157  0.161  0.164  0.168
 6 DR_OtherNonC… Algeria Total <NA>  Base      0.622  0.618  0.617  0.616  0.614
 7 DR_TrafficAcc Algeria Total <NA>  Base      0.276  0.28   0.279  0.278  0.278
 8 DR_UnIntInj   Algeria Total <NA>  Base      0.146  0.146  0.148  0.149  0.15 
 9 DR_IntInj     Algeria Total <NA>  Base      0.053  0.053  0.053  0.053  0.053
10 DR_Diabetes   Algeria Total <NA>  Base      0.214  0.218  0.223  0.229  0.234
# ℹ 1,070 more rows
# ℹ 46 more variables: `2020` <dbl>, `2021` <dbl>, `2022` <dbl>, `2023` <dbl>,
#   `2024` <dbl>, `2025` <dbl>, `2026` <dbl>, `2027` <dbl>, `2028` <dbl>,
#   `2029` <dbl>, `2030` <dbl>, `2031` <dbl>, `2032` <dbl>, `2033` <dbl>,
#   `2034` <dbl>, `2035` <dbl>, `2036` <dbl>, `2037` <dbl>, `2038` <dbl>,
#   `2039` <dbl>, `2040` <dbl>, `2041` <dbl>, `2042` <dbl>, `2043` <dbl>,
#   `2044` <dbl>, `2045` <dbl>, `2046` <dbl>, `2047` <dbl>, `2048` <dbl>, …
…
(df <- df %>% 
  #pivot data
   gather(year, val, 6:56) %>% 
  #filter on 2019 results
   filter(year == '2019') %>% 
  #select variable, country, and val
   select(1:2, 7) %>% 
  #group by variable and generate z-score for clustering
   group_by(variable) %>% 
   mutate(val = scale(val)) %>% 
   ungroup() %>% 
   spread(variable, val)) 

# A tibble: 54 × 21
   country       CLPC DR_AIDS DR_CardioVasc DR_Diabetes DR_Diarrhea DR_Digestive
   <chr>        <dbl>   <dbl>         <dbl>       <dbl>       <dbl>        <dbl>
 1 Algeria     1.63    -0.948         1.19       0.102      -1.42        -1.95  
 2 Angola     -0.0927  -0.427        -0.951     -0.510       1.10         0.443 
 3 Benin       0.609   -0.610        -0.427     -0.385       0.815        0.0179
 4 Botswana   -0.846    1.68         -0.224      0.835      -0.601       -1.28  
 5 Burkina F…  0.821   -0.709        -0.624     -0.471      -0.0198       0.307 
 6 Burundi    -1.41    -0.636        -0.777     -0.436       2.16         0.597 
 7 Cameroon    0.821    0.663        -0.513     -0.178      -0.117        0.346 
 8 Cape Verde -0.494   -0.637         0.788      0.0205     -1.30        -1.62  
 9 Central A… -1.29     0.902         0.166     -0.367       1.56         1.81  
10 Chad       -0.887   -0.621        -0.466     -0.428       3.26         1.48  
# ℹ 44 more rows
# ℹ 14 more variables: DR_IntInj <dbl>, DR_Malaria <dbl>, DR_MaligNeoPl <dbl>,
#   DR_MentalHealth <dbl>, DR_OthCommumDis <dbl>, DR_OtherNonComm <dbl>,
#   DR_RespInfec <dbl>, DR_Respiratory <dbl>, DR_TrafficAcc <dbl>,
#   DR_UnIntInj <dbl>, HLSMOKING <dbl>, HLSTUNT <dbl>, INFMOR <dbl>,
#   MATMORTRATIO <dbl>
…
Available components:

[1] "cluster"      "centers"      "totss"        "withinss"     "tot.withinss"
[6] "betweenss"    "size"         "iter"         "ifault"      

Wrangling cluster results

(df_cluster_4_results <- kmeans_sdg3 %>% 
  #broom to pull the cluster into the dataframe
  broom::augment(df) %>% 
  ungroup() %>% 
  select(.cluster, everything()) %>% 
  mutate(.cluster = as.character(.cluster)))

# A tibble: 54 × 22
   .cluster country         CLPC DR_AIDS DR_CardioVasc DR_Diabetes DR_Diarrhea
   <chr>    <chr>          <dbl>   <dbl>         <dbl>       <dbl>       <dbl>
 1 1        Algeria       1.63    -0.948         1.19       0.102      -1.42  
 2 4        Angola       -0.0927  -0.427        -0.951     -0.510       1.10  
 3 3        Benin         0.609   -0.610        -0.427     -0.385       0.815 
 4 2        Botswana     -0.846    1.68         -0.224      0.835      -0.601 
 5 3        Burkina Faso  0.821   -0.709        -0.624     -0.471      -0.0198
 6 4        Burundi      -1.41    -0.636        -0.777     -0.436       2.16  
 7 4        Cameroon      0.821    0.663        -0.513     -0.178      -0.117 
 8 1        Cape Verde   -0.494   -0.637         0.788      0.0205     -1.30  
 9 4        Central AfR  -1.29     0.902         0.166     -0.367       1.56  
10 4        Chad         -0.887   -0.621        -0.466     -0.428       3.26  
# ℹ 44 more rows
# ℹ 15 more variables: DR_Digestive <dbl>, DR_IntInj <dbl>, DR_Malaria <dbl>,
#   DR_MaligNeoPl <dbl>, DR_MentalHealth <dbl>, DR_OthCommumDis <dbl>,
#   DR_OtherNonComm <dbl>, DR_RespInfec <dbl>, DR_Respiratory <dbl>,
#   DR_TrafficAcc <dbl>, DR_UnIntInj <dbl>, HLSMOKING <dbl>, HLSTUNT <dbl>,
#   INFMOR <dbl>, MATMORTRATIO <dbl>

Rows: 159 Columns: 3
── Column specification ────────────────────────────────────────────────────────
Delimiter: ","
chr (3): type, country, group

ℹ Use `spec()` to retrieve the full column specification for this data.
ℹ Specify the column types or set `show_col_types = FALSE` to quiet this message.

# A tibble: 54 × 3
   type     country                       group        
   <chr>    <chr>                         <chr>        
 1 Regional Cameroon                      Cenral Africa
 2 Regional Central AfR                   Cenral Africa
 3 Regional Chad                          Cenral Africa
 4 Regional Congo, Democratic Republic of Cenral Africa
 5 Regional Congo, Republic of            Cenral Africa
 6 Regional Equa Guinea                   Cenral Africa
 7 Regional Gabon                         Cenral Africa
 8 Regional Sao Tome and Principe         Cenral Africa
 9 Regional Burundi                       East Africa  
10 Regional Comoros                       East Africa  
# ℹ 44 more rows

# A tibble: 54 × 23
   .cluster country  group    CLPC DR_AIDS DR_CardioVasc DR_Diabetes DR_Diarrhea
   <chr>    <chr>    <chr>   <dbl>   <dbl>         <dbl>       <dbl>       <dbl>
 1 1        Algeria  Nort…  1.63    -0.948         1.19       0.102      -1.42  
 2 4        Angola   Sout… -0.0927  -0.427        -0.951     -0.510       1.10  
 3 3        Benin    West…  0.609   -0.610        -0.427     -0.385       0.815 
 4 2        Botswana Sout… -0.846    1.68         -0.224      0.835      -0.601 
 5 3        Burkina… West…  0.821   -0.709        -0.624     -0.471      -0.0198
 6 4        Burundi  East… -1.41    -0.636        -0.777     -0.436       2.16  
 7 4        Cameroon Cenr…  0.821    0.663        -0.513     -0.178      -0.117 
 8 1        Cape Ve… West… -0.494   -0.637         0.788      0.0205     -1.30  
 9 4        Central… Cenr… -1.29     0.902         0.166     -0.367       1.56  
10 4        Chad     Cenr… -0.887   -0.621        -0.466     -0.428       3.26  
# ℹ 44 more rows
# ℹ 15 more variables: DR_Digestive <dbl>, DR_IntInj <dbl>, DR_Malaria <dbl>,
#   DR_MaligNeoPl <dbl>, DR_MentalHealth <dbl>, DR_OthCommumDis <dbl>,
#   DR_OtherNonComm <dbl>, DR_RespInfec <dbl>, DR_Respiratory <dbl>,
#   DR_TrafficAcc <dbl>, DR_UnIntInj <dbl>, HLSMOKING <dbl>, HLSTUNT <dbl>,
#   INFMOR <dbl>, MATMORTRATIO <dbl>
…
Cluster 1: Higher levels of non-communicable disease reflecting higher development.

Cluster 2: Highest burdens of HIV/AIDS, diabetes, respiratory illnesses, traffic fatalities, and deaths from intentional injuries.

Cluster 3: Countries in the middle of the “double burden” of disease, with elevated (but generally falling) burden of communicable disease and rising burdens from non-communicable disease.

Cluster 4: Communicable disease mortality characterizes these countries. Countries in this cluster are at the beginning of development towards the “double burden” of disease.

Some quick clean-up to support putting labels on the cluster graphic.

(df_label_help <- df %>% 
  select(1) %>%
  rownames_to_column())

# A tibble: 54 × 2
   rowname country     
   <chr>   <chr>       
 1 1       Algeria     
 2 2       Angola      
 3 3       Benin       
 4 4       Botswana    
 5 5       Burkina Faso
 6 6       Burundi     
 7 7       Cameroon    
 8 8       Cape Verde  
 9 9       Central AfR 
10 10      Chad        
# ℹ 44 more rows
…
