The 2024 NFL Season in 10 Graphs
…
def_ranks %>% 
  left_join(x=.,
            y=rosters,
            by=c('player_id' = 'gsis_id',
                 'season',
                 'team')) %>% 
  filter(age_season_start >= 35,
         position.x == 'DT') %>% 
  arrange(-sum_def_sacks)

# A tibble: 21 × 33
   season team  player_id  player_display_name position.x sum_def_tackles
    <int> <chr> <chr>      <chr>               <chr>                <int>
 1   2024 PIT   00-0027969 Cameron Heyward     DT                      26
 2   2003 SEA   00-0013405 John Randle         DT                      12
 3   2007 SF    00-0018405 Bryant Young        DT                      30
 4   2018 BUF   00-0024348 Kyle Williams       DT                      22
 5   2006 MIA   00-0016599 Keith Traylor       DT                      28
 6   2005 MIA   00-0016599 Keith Traylor       DT                      22
 7   2005 MIA   00-0018503 Jeff Zgonina        DT                      23
 8   2008 ATL   00-0008124 Grady Jackson       DT                      23
 9   2009 MIN   00-0017899 Pat Williams        DT                      34
10   2016 WAS   00-0021706 Cullen Jenkins      DT                      10
# ℹ 11 more rows
# ℹ 27 more variables: sum_def_tackles_solo <int>,
#   sum_def_tackles_with_assist <int>, sum_def_tackle_assists <int>,
#   sum_def_tackles_for_loss <int>, sum_def_tackles_for_loss_yards <dbl>,
#   sum_def_fumbles_forced <int>, sum_def_sacks <dbl>,
#   sum_def_sack_yards <dbl>, sum_def_qb_hits <dbl>,
#   sum_def_interceptions <dbl>, sum_def_interception_yards <dbl>, …
…
6 New City, New You: Derrick Henry and Saquon Barkley

Show the code

nextgen_rushing_16_24 <- load_nextgen_stats(seasons = TRUE,
                   stat_type = 'rushing')
nextgen_rushing_16_24 %>% 
  filter(player_display_name == 'Saquon Barkley')

── nflverse Next Gen Stats weekly rushing data ─────────────────────────────────

ℹ Data updated: 2024-12-06 02:26:04 EST

# A tibble: 86 × 22
   season season_type  week player_display_name player_position team_abbr
    <int> <chr>       <int> <chr>               <chr>           <chr>    
 1   2018 REG             0 Saquon Barkley      RB              NYG      
 2   2018 REG             1 Saquon Barkley      RB              NYG      
 3   2018 REG             2 Saquon Barkley      RB              NYG      
 4   2018 REG             3 Saquon Barkley      RB              NYG      
 5   2018 REG             4 Saquon Barkley      RB              NYG      
 6   2018 REG             5 Saquon Barkley      RB              NYG      
 7   2018 REG             6 Saquon Barkley      RB              NYG      
 8   2018 REG             7 Saquon Barkley      RB              NYG      
 9   2018 REG             8 Saquon Barkley      RB              NYG      
10   2018 REG            10 Saquon Barkley      RB              NYG      
# ℹ 76 more rows
# ℹ 16 more variables: efficiency <dbl>,
#   percent_attempts_gte_eight_defenders <dbl>, avg_time_to_los <dbl>,
#   rush_attempts <int>, rush_yards <int>, avg_rush_yards <dbl>,
#   rush_touchdowns <int>, player_gsis_id <chr>, player_first_name <chr>,
#   player_last_name <chr>, player_jersey_number <int>,
#   player_short_name <chr>, expected_rush_yards <dbl>, …
…
