Visualizing the expansion of wind turbine projects in Canada over time
…
4. Tidy the Data

If I did some tidying of commissioning_date, we could do a running total plot of turbine projects by province (some, for instance, have “2001/2002”).

Show code
turbines %>% 
  distinct(commissioning_date)

# A tibble: 35 × 1
   commissioning_date
   <chr>             
 1 1993              
 2 1997              
 3 1998              
 4 2000              
 5 2001              
 6 2002              
 7 2003              
 8 2004              
 9 2006              
10 2007              
# ℹ 25 more rows
…
