Pardee Skills Workshop: Data Manipulation and Visualization Basics using R
…
The filter() function allows you to subset your data by values of the variables in your dataset.

We’re going to use piping a lot in this session, so let’s get comfortable with it. Try using the pipe operator keyboard shortcut (Ctrl + Shift + M) with your code from this point forward.

Let’s filter the gapminder dataframe to look at only the values in the year 2007.

gapminder %>% 
  filter(year == 2007)

# A tibble: 142 × 6
   country     continent  year lifeExp       pop gdpPercap
   <fct>       <fct>     <int>   <dbl>     <int>     <dbl>
 1 Afghanistan Asia       2007    43.8  31889923      975.
 2 Albania     Europe     2007    76.4   3600523     5937.
 3 Algeria     Africa     2007    72.3  33333216     6223.
 4 Angola      Africa     2007    42.7  12420476     4797.
 5 Argentina   Americas   2007    75.3  40301927    12779.
 6 Australia   Oceania    2007    81.2  20434176    34435.
 7 Austria     Europe     2007    79.8   8199783    36126.
 8 Bahrain     Asia       2007    75.6    708573    29796.
 9 Bangladesh  Asia       2007    64.1 150448339     1391.
10 Belgium     Europe     2007    79.4  10392226    33693.
# ℹ 132 more rows
…
This shows that the dataset has only one occurrence of South Africa in 2007. Note that in dplyr, separating arguments with a comma allows you to combine multiple logical expressions. How would you read the above code aloud?

One thing to keep in mind – your data object remains unchanged, unless you assign the filter() to a new object. To save the above code as a new object, you need to assign it to a new named object, such as:

sa_2007 <- gapminder %>% filter(country == ‘South Africa’, year == 2007)

arrange()

The arrange() function sorts your data – a very common thing to do in an exploratory data analysis. Let’s arrange the gapminder data by life expectancy (the variable is called lifeExp).

gapminder %>% 
  arrange(lifeExp)

# A tibble: 1,704 × 6
   country      continent  year lifeExp     pop gdpPercap
   <fct>        <fct>     <int>   <dbl>   <int>     <dbl>
 1 Rwanda       Africa     1992    23.6 7290203      737.
 2 Afghanistan  Asia       1952    28.8 8425333      779.
 3 Gambia       Africa     1952    30    284320      485.
 4 Angola       Africa     1952    30.0 4232095     3521.
 5 Sierra Leone Africa     1952    30.3 2143249      880.
 6 Afghanistan  Asia       1957    30.3 9240934      821.
 7 Cambodia     Asia       1977    31.2 6978607      525.
 8 Mozambique   Africa     1952    31.3 6446316      469.
 9 Sierra Leone Africa     1957    31.6 2295678     1004.
10 Burkina Faso Africa     1952    32.0 4469979      543.
# ℹ 1,694 more rows

This shows us that Rwanda in 1992 is the lowest life expectancy in the dataset. By default, the arrange() function sorts your data in ascending order. What if we want to sort the data by the largest GDP per capita (variable is gdpPercap) in the dataset?

gapminder %>% 
  arrange(-gdpPercap)

# A tibble: 1,704 × 6
   country   continent  year lifeExp     pop gdpPercap
   <fct>     <fct>     <int>   <dbl>   <int>     <dbl>
 1 Kuwait    Asia       1957    58.0  212846   113523.
 2 Kuwait    Asia       1972    67.7  841934   109348.
 3 Kuwait    Asia       1952    55.6  160000   108382.
 4 Kuwait    Asia       1962    60.5  358266    95458.
 5 Kuwait    Asia       1967    64.6  575003    80895.
 6 Kuwait    Asia       1977    69.3 1140357    59265.
 7 Norway    Europe     2007    80.2 4627926    49357.
 8 Kuwait    Asia       2007    77.6 2505559    47307.
 9 Singapore Asia       2007    80.0 4553009    47143.
10 Norway    Europe     2002    79.0 4535591    44684.
# ℹ 1,694 more rows
…
In data analysis, it’s common to want to create or derive new variables from your original dataset. This is done with the dplyr::mutate() function. For example, you might want to create a variable that is the distance in time from the beginning of the dataset. This is a typical derived variable used in regression modeling.

For these new variables, let’s save this as a new data object.

gapminder <- gapminder %>% 
  mutate(time_dist = year - 1952)

print(gapminder)

# A tibble: 1,704 × 7
   country     continent  year lifeExp      pop gdpPercap time_dist
   <fct>       <fct>     <int>   <dbl>    <int>     <dbl>     <dbl>
 1 Afghanistan Asia       1952    28.8  8425333      779.         0
 2 Afghanistan Asia       1957    30.3  9240934      821.         5
 3 Afghanistan Asia       1962    32.0 10267083      853.        10
 4 Afghanistan Asia       1967    34.0 11537966      836.        15
 5 Afghanistan Asia       1972    36.1 13079460      740.        20
 6 Afghanistan Asia       1977    38.4 14880372      786.        25
 7 Afghanistan Asia       1982    39.9 12881816      978.        30
 8 Afghanistan Asia       1987    40.8 13867957      852.        35
 9 Afghanistan Asia       1992    41.7 16317921      649.        40
10 Afghanistan Asia       1997    41.8 22227415      635.        45
# ℹ 1,694 more rows
…
The above code groups the gapminder dataset by the year variable and computes the average life expectancy per year. This shows the gradual advancement in global average life expectancy over time. Pretty neat!

The gapminder dataset begs the question: how has the average life expectancy changed over time and across continents? Said another way, how has average life expectancy changed BY year and BY continent? BY is a hint that you want to group your data to answer your question. Just like previous functions that we’ve learned (such as filter() and mutate()), you can group your data by multiple conditions with comma.

gapminder %>% 
  group_by(year, continent) %>% 
  summarise(meanlifeExp = mean(lifeExp))

`summarise()` has grouped output by 'year'. You can override using the
`.groups` argument.

# A tibble: 60 × 3
# Groups:   year [12]
    year continent meanlifeExp
   <int> <fct>           <dbl>
 1  1952 Africa           39.1
 2  1952 Americas         53.3
 3  1952 Asia             46.3
 4  1952 Europe           64.4
 5  1952 Oceania          69.3
 6  1957 Africa           41.3
 7  1957 Americas         56.0
 8  1957 Asia             49.3
 9  1957 Europe           66.7
10  1957 Oceania          70.3
# ℹ 50 more rows
…
gapminder_by_year_continent %>% 
  filter(year == 1987,
         continent == 'Africa')

What is the difference between summary() and summarise(), and when would you use them?

There’s so much that you can do with the dplyr verbs working together. group_by() is often combined with summarise(), but you can also use it with mutate(). For instance, you could group the gapminder dataset by year and produce within year rankings for life expectancy.

gapminder %>% 
  group_by(year) %>% 
  mutate(lifeExp_rank = rank(desc(lifeExp))) %>% 
  arrange(year, lifeExp_rank)

# A tibble: 1,704 × 9
# Groups:   year [12]
   country        continent  year lifeExp    pop gdpPercap time_dist         gdp
   <fct>          <fct>     <int>   <dbl>  <dbl>     <dbl>     <dbl>       <dbl>
 1 Norway         Europe     1952    72.7  3.33     10095.         0     3.36e10
 2 Iceland        Europe     1952    72.5  0.148     7268.         0     1.08e 9
 3 Netherlands    Europe     1952    72.1 10.4       8942.         0     9.28e10
 4 Sweden         Europe     1952    71.9  7.12      8528.         0     6.08e10
 5 Denmark        Europe     1952    70.8  4.33      9692.         0     4.20e10
 6 Switzerland    Europe     1952    69.6  4.82     14734.         0     7.09e10
 7 New Zealand    Oceania    1952    69.4  1.99     10557.         0     2.11e10
 8 United Kingdom Europe     1952    69.2 50.4       9980.         0     5.03e11
 9 Australia      Oceania    1952    69.1  8.69     10040.         0     8.73e10
10 Canada         Americas   1952    68.8 14.8      11367.         0     1.68e11
# ℹ 1,694 more rows
# ℹ 1 more variable: lifeExp_rank <dbl>
…
