Analyzing Health Professional Shortage Areas in the U.S.
…
New names:
• `` -> `...26`

Warning: One or more parsing issues, call `problems()` on your data frame for details,
e.g.:
  dat <- vroom(...)
  problems(dat)

# write_csv(df_hpsa, './/data/hpsa_download.csv')

df_hpsa %>% 
  dlookr::diagnose_category()

# A tibble: 171 × 6
   variables  levels            N  freq ratio  rank
   <chr>      <chr>         <int> <int> <dbl> <int>
 1 discipline Primary Care  54982 21464 39.0      1
 2 discipline Mental Health 54982 16979 30.9      2
 3 discipline Dental Health 54982 16539 30.1      3
 4 hhs_region Region 9      54982 11951 21.7      1
 5 hhs_region Region 5      54982 10605 19.3      2
 6 hhs_region Region 4      54982  8135 14.8      3
 7 hhs_region Region 2      54982  4983  9.06     4
 8 hhs_region Region 6      54982  4080  7.42     5
 9 hhs_region Region 10     54982  3762  6.84     6
10 hhs_region Region 3      54982  3617  6.58     7
# ℹ 161 more rows

I’d like to analyze the bivariate relationship between mental healthcare providers (at correctional facilities) and the inmate populations across the U.S. Which areas have the most acute shortage of healthcare professionals working in correctional facilities?

df_hpsa %>% 
  filter(discipline == 'Mental Health',
         hpsa_sub_type == 'Correctional Facility')

# A tibble: 537 × 25
   discipline    hhs_region state          county   hpsa_id hpsa_name hpsa_score
   <fct>         <fct>      <fct>          <chr>    <chr>   <chr>          <int>
 1 Mental Health Region 5   Illinois       Randolph 717695… CF- Mena…          9
 2 Mental Health Region 10  Washington     Pierce   753256… Washingt…         15
 3 Mental Health Region 2   New York       Oneida   736785… Marcy Co…         12
 4 Mental Health Region 9   Arizona        Maricopa 704968… Arizona …          6
 5 Mental Health Region 5   Ohio           Madison  739871… Madison …          6
 6 Mental Health Region 4   North Carolina Pasquot… 737839… Pasquota…         12
 7 Mental Health Region 7   Missouri       Greene   729113… MCFP-Spr…         12
 8 Mental Health Region 5   Ohio           Madison  739698… London C…         12
 9 Mental Health Region 10  Idaho          Clearwa… 716505… Idaho Co…         15
10 Mental Health Region 5   Ohio           Warren   739210… Lebanon …         12
# ℹ 527 more rows
# ℹ 18 more variables: hpsa_type_category <fct>, hpsa_type_code <fct>,
#   hpsa_sub_type <fct>, hpsa_status <fct>, rural_status <fct>,
#   hpsa_status_code <fct>, designation_date <date>, last_update_date <date>,
#   hpsa_designation_population <dbl>, hpsa_component_id <chr>,
#   hpsa_component_name <chr>, hpsa_component_type <fct>,
#   hpsa_facility_address <chr>, hpsa_facility_city_and_state <chr>, …
…
# Perform a spatial join between ZCTAs and counties
zcta_county <- st_join(zctas, counties)

df_hpsa %>% 
  select(contains('zip'))

# A tibble: 54,982 × 2
   hpsa_facility_zip_code zip_cleaned
   <chr>                  <chr>      
 1 <NA>                   <NA>       
 2 40701-6285             40701      
 3 <NA>                   <NA>       
 4 <NA>                   <NA>       
 5 67879-7708             67879      
 6 53538-3100             53538      
 7 10029                  10029      
 8 <NA>                   <NA>       
 9 61071-1005             61071      
10 <NA>                   <NA>       
# ℹ 54,972 more rows
…
# note: need to distribute Federal BOP populations according to BOP facilities

(df_mental_health_state <- df_mental_health %>% 
  group_by(state) %>% 
  summarise(ttl_mental_health_professionals = sum(count_mental_health_professionals, na.rm = TRUE),
            ttl_designated_population = sum(sum_hpsa_designated_population, na.rm = TRUE),
            .groups = 'drop'))

# A tibble: 46 × 3
   state         ttl_mental_health_professionals ttl_designated_population
   <fct>                                   <int>                     <dbl>
 1 New York                                   45                     48094
 2 Kentucky                                   19                     29552
 3 Illinois                                   46                    104585
 4 Kansas                                      5                      9383
 5 Wisconsin                                  40                     65390
 6 Massachusetts                               6                      5408
 7 California                                 65                    185181
 8 Arizona                                    23                     78269
 9 Washington                                 19                     75112
10 Minnesota                                  28                     40693
# ℹ 36 more rows
…
df_hpsa %>% 
  diagnose()

# A tibble: 26 × 6
   variables        types missing_count missing_percent unique_count unique_rate
   <chr>            <chr>         <int>           <dbl>        <int>       <dbl>
 1 discipline       fact…             0               0            3   0.0000546
 2 hhs_region       fact…             0               0           10   0.000182 
 3 state            fact…             0               0           59   0.00107  
 4 county           char…             0               0         1965   0.0357   
 5 hpsa_id          char…             0               0        21149   0.385    
 6 hpsa_name        char…             0               0         9645   0.175    
 7 hpsa_score       inte…             0               0           27   0.000491 
 8 hpsa_type_categ… fact…             0               0            3   0.0000546
 9 hpsa_type_code   fact…             0               0           10   0.000182 
10 hpsa_sub_type    fact…             0               0           21   0.000382 
# ℹ 16 more rows
…
