Data Science Workflows in Javascript: Part One
…
carapace_width: crab carapace width, in millimeters

MATA: mean annual air temperature in degrees Celsius

SATA: standard deviation of annual air temperature in degrees Celsius

MATW: mean annual water temperature in degrees Celsius

SATW: standard deviation of annual water temperature in degrees Celsius

What is crabs? An array of objects. Let’s take a look at it outside of the Data table cell to see how that looks.

crabs

# A tibble: 392 × 9
   Date       Latitude Site  Replicate carapace_width  MATA  SATA  MATW  SATW
   <date>        <dbl> <chr>     <dbl>          <dbl> <dbl> <dbl> <dbl> <dbl>
 1 2016-07-24       30 GTM           1           12.4  21.8  6.39  24.5  6.12
 2 2016-07-24       30 GTM           2           14.2  21.8  6.39  24.5  6.12
 3 2016-07-24       30 GTM           3           14.5  21.8  6.39  24.5  6.12
 4 2016-07-24       30 GTM           4           12.9  21.8  6.39  24.5  6.12
 5 2016-07-24       30 GTM           5           12.4  21.8  6.39  24.5  6.12
 6 2016-07-24       30 GTM           6           13.0  21.8  6.39  24.5  6.12
 7 2016-07-24       30 GTM           7           10.3  21.8  6.39  24.5  6.12
 8 2016-07-24       30 GTM           8           11.2  21.8  6.39  24.5  6.12
 9 2016-07-24       30 GTM           9           12.7  21.8  6.39  24.5  6.12
10 2016-07-24       30 GTM          11           14.6  21.8  6.39  24.5  6.12
# ℹ 382 more rows
…
