Exploring U.S. dams data from the National Inventory of Dams
…
ℹ Use `spec()` to retrieve the full column specification for this data.
ℹ Specify the column types or set `show_col_types = FALSE` to quiet this message.

df_dam %>% 
  mutate(state = as.factor(state),
         state_regulated_dam = as.factor(state_regulated_dam))

# A tibble: 92,401 × 83
   dam_name        other_names former_names nid_id other_structure_id federal_id
   <chr>           <chr>       <chr>        <chr>  <chr>              <chr>     
 1 Aichi Forge Us… Aichi Forg… <NA>         KY007… <NA>               KY00728   
 2 Oxy Usa Retent… <NA>        <NA>         ND011… <NA>               ND01160   
 3 Dod Usa 4       <NA>        Dod Usa      OK209… <NA>               OK20998   
 4 Dod Usa 2       <NA>        Dod Usa      OK209… <NA>               OK20994   
 5 Girl Scouts of… Lake Spart… <NA>         NC026… <NA>               NC02637   
 6 Rlf/Pawnee Min… Pawnee Cap… Usa Coal Sl… IL500… <NA>               IL50006   
 7 Exxonmobil Coa… Make-Up Wa… Monterey  C… IL505… <NA>               IL50526   
 8 Exxonmobil Coa… <NA>        Monterey Co… IL505… <NA>               IL50527   
 9 Rlf/Pawnee Min… Slurry Pon… Usa Coal Sl… IL504… <NA>               IL50416   
10 Asso.Minerals … Associated… <NA>         FL001… <NA>               FL00155   
# ℹ 92,391 more rows
# ℹ 77 more variables: owner_names <chr>, owner_types <chr>,
#   primary_owner_type <chr>, number_of_associated_structures <dbl>,
#   is_associated_structure <chr>, designer_names <chr>,
#   non_federal_dam_on_federal_property <chr>, primary_purpose <chr>,
#   purposes <chr>, source_agency <chr>, state_or_federal_agency_id <chr>,
#   latitude <dbl>, longitude <dbl>, state <fct>, county <chr>, city <chr>, …
…
df_dam %>% 
  group_by(owner_types) %>% 
  count() %>% 
  arrange(-n) %>% 
  ungroup() %>% 
  mutate(percent = round(100 * (n / sum(n)), 1))

# A tibble: 26 × 3
   owner_types                  n percent
   <chr>                    <int>   <dbl>
 1 Private                  60445    65.4
 2 Local Government         18390    19.9
 3 State                     6658     7.2
 4 Federal                   3436     3.7
 5 Public Utility            1669     1.8
 6 Not Listed                1380     1.5
 7 State;Local Government     148     0.2
 8 Local Government;Private   103     0.1
 9 Private;Local Government    90     0.1
10 Private;State               22     0  
# ℹ 16 more rows
…
