Query comparison: SQL, R, and Python using Chicago Employees dataset
…
ABRAM, ANTHONY A
POLICE OFFICER
POLICE
68616
1466985600
1466985600
SALARY
Fulltime-Regular

df %>% 
  filter(title == 'POLICE OFFICER')

# A tibble: 9,213 × 8
   name                  title      department salary_annual original_hire_date 
   <chr>                 <chr>      <chr>              <dbl> <dttm>             
 1 ABBATE,  TERRY M      POLICE OF… POLICE             93354 1995-12-04 00:00:00
 2 ABDALLAH,  ZAID       POLICE OF… POLICE             84054 2012-11-30 00:00:00
 3 ABDELHADI,  ABDALMAHD POLICE OF… POLICE             87006 2006-12-18 00:00:00
 4 ABDELMAJEID,  AZIZ    POLICE OF… POLICE             84054 2008-04-28 00:00:00
 5 ABEJERO,  JASON V     POLICE OF… POLICE             90024 1999-10-25 00:00:00
 6 ABFALL,  RICHARD C    POLICE OF… POLICE             48078 2017-05-16 00:00:00
 7 ABNEY,  PATRICK       POLICE OF… POLICE             72510 2015-06-29 00:00:00
 8 ABOUASSI,  CHADI      POLICE OF… POLICE             48078 2017-05-16 00:00:00
 9 ABRAHAM,  NANCY A     POLICE OF… POLICE             76266 2014-04-28 00:00:00
10 ABRAM,  ANTHONY A     POLICE OF… POLICE             68616 2016-06-27 00:00:00
# ℹ 9,203 more rows
# ℹ 3 more variables: start_date_in_present_position <dttm>,
#   salary_basis <chr>, employment_category <chr>
…
ABOUELKHEIR, HASSAN A
110064

ABRAHAM, GIRLEY T
110064

ABRAMSKI, JOHN E
128970

df %>% 
  filter(salary_annual > 100000) %>% 
  select(name, salary_annual)

# A tibble: 6,091 × 2
   name                     salary_annual
   <chr>                            <dbl>
 1 AARON,  JEFFERY M               101442
 2 AARON,  KIMBERLEI R             101592
 3 ABAD JR,  VICENTE M             110064
 4 ABBATEMARCO,  JAMES J           103350
 5 ABDELLATIF,  AREF R             102228
 6 ABDUL-KARIM,  MUHAMMAD A        111492
 7 ABDULLAH,  KEVIN                114846
 8 ABOUELKHEIR,  HASSAN A          110064
 9 ABRAHAM,  GIRLEY T              110064
10 ABRAMSKI,  JOHN E               128970
# ℹ 6,081 more rows
…
ALAM, SYED S

ALEXANDER, PATRICIA L

ALEXANDER, RACQUEL L

ALLEN, JONATHAN E

ALLEN, KEVIN M

df %>% 
  filter(department == 'FINANCE') %>% 
  select(name)

# A tibble: 563 × 1
   name                  
   <chr>                 
 1 ADAMCZYK JR,  JAN     
 2 ADAPON,  NENITA P     
 3 ADENI,  MOHAMED K     
 4 AHMED,  MOHAMMAD A    
 5 AIKONEDO,  PAUL E     
 6 ALAM,  SYED S         
 7 ALEXANDER,  PATRICIA L
 8 ALEXANDER,  RACQUEL L 
 9 ALLEN,  JONATHAN E    
10 ALLEN,  KEVIN M       
# ℹ 553 more rows
…
PUBLIC LIBRARY
978

FLEET AND FACILITY MGMT
964

FAMILY & SUPPORT
625

df %>% 
  group_by(department) %>%
  count() %>% 
  arrange(-n)

# A tibble: 36 × 2
# Groups:   department [36]
   department                  n
   <chr>                   <int>
 1 POLICE                  13055
 2 FIRE                     4833
 3 OEMC                     2121
 4 STREETS & SAN            2045
 5 WATER MGMNT              1902
 6 AVIATION                 1414
 7 TRANSPORTN               1244
 8 PUBLIC LIBRARY            978
 9 FLEET AND FACILITY MGMT   964
10 FAMILY & SUPPORT          625
# ℹ 26 more rows
…
DEPUTY FIRE COMMISSIONER
187680

CHIEF
185364

ASST DEPUTY FIRE COMMISSIONER
185352

df %>% 
  group_by(title) %>% 
  summarize(avg_salary = mean(salary_annual, na.rm = TRUE)) %>% 
  arrange(-avg_salary)

# A tibble: 1,121 × 2
   title                          avg_salary
   <chr>                               <dbl>
 1 COMMISSIONER OF AVIATION           300000
 2 SUPERINTENDENT OF POLICE           260004
 3 MAYOR                              216210
 4 FIRE COMMISSIONER                  202728
 5 FIRST DEPUTY FIRE COMMISSIONER     197736
 6 FIRST DEPUTY SUPERINTENDENT        197724
 7 CHIEF OF STAFF                     195000
 8 DEPUTY FIRE COMMISSIONER           187680
 9 CHIEF                              185364
10 ASST DEPUTY FIRE COMMISSIONER      185352
# ℹ 1,111 more rows
…
FIREFIGHTER
533

CROSSING GUARD
464

CONSTRUCTION LABORER
456

df %>% 
  group_by(title) %>% 
  count() %>% 
  arrange(-n)

# A tibble: 1,121 × 2
# Groups:   title [1,121]
   title                                      n
   <chr>                                  <int>
 1 POLICE OFFICER                          9213
 2 FIREFIGHTER-EMT                         1492
 3 SERGEANT                                1162
 4 POLICE OFFICER (ASSIGNED AS DETECTIVE)  1015
 5 MOTOR TRUCK DRIVER                       709
 6 POOL MOTOR TRUCK DRIVER                  693
 7 SANITATION LABORER                       634
 8 FIREFIGHTER                              533
 9 CROSSING GUARD                           464
10 CONSTRUCTION LABORER                     456
# ℹ 1,111 more rows
…
YAMAJI, PETER S
VETERINARIAN
ANIMAL CONTRL
128136
2

df %>% 
  group_by(department) %>% 
  mutate(salary_rank = dense_rank(desc(salary_annual))) %>% 
  arrange(department, salary_rank) %>% 
  filter(salary_rank <= 5,
         !is.na(department))

# A tibble: 290 × 9
# Groups:   department [35]
   name                       title department salary_annual original_hire_date 
   <chr>                      <chr> <chr>              <dbl> <dttm>             
 1 JACKOWIAK,  PATRICIA       DIR … ADMIN HEA…        156420 1989-09-01 00:00:00
 2 SHEELY,  STEVEN N          DEPU… ADMIN HEA…        131688 2003-07-16 00:00:00
 3 HENNIGAN,  KEVIN G         FISC… ADMIN HEA…        117660 1980-01-07 00:00:00
 4 HEIDT,  SANDRA E           ASST… ADMIN HEA…         98160 1985-09-09 00:00:00
 5 GOGOLA,  DEBORAH G         SENI… ADMIN HEA…         96636 1989-10-02 00:00:00
 6 PARKER-OKOJIE,  GABRIELLE… SENI… ADMIN HEA…         96636 2004-06-15 00:00:00
 7 RIZZO,  ANTHONY J          SENI… ADMIN HEA…         96636 1997-12-08 00:00:00
 8 WEINERT,  DARCI N          SENI… ADMIN HEA…         96636 2003-03-17 00:00:00
 9 RUSSELL,  SUSAN J          EXEC… ANIMAL CO…        130008 2016-05-02 00:00:00
10 YAMAJI,  PETER S           VETE… ANIMAL CO…        128136 2000-08-21 00:00:00
# ℹ 280 more rows
# ℹ 4 more variables: start_date_in_present_position <dttm>,
#   salary_basis <chr>, employment_category <chr>, salary_rank <int>
…
df %>% 
  group_by(department) %>% 
  mutate(avg_salary = mean(salary_annual)) %>% 
  filter(salary_annual > avg_salary) %>% 
  arrange(department, -salary_annual)

# A tibble: 16,399 × 9
# Groups:   department [35]
   name                       title department salary_annual original_hire_date 
   <chr>                      <chr> <chr>              <dbl> <dttm>             
 1 JACKOWIAK,  PATRICIA       DIR … ADMIN HEA…        156420 1989-09-01 00:00:00
 2 SHEELY,  STEVEN N          DEPU… ADMIN HEA…        131688 2003-07-16 00:00:00
 3 HENNIGAN,  KEVIN G         FISC… ADMIN HEA…        117660 1980-01-07 00:00:00
 4 HEIDT,  SANDRA E           ASST… ADMIN HEA…         98160 1985-09-09 00:00:00
 5 GOGOLA,  DEBORAH G         SENI… ADMIN HEA…         96636 1989-10-02 00:00:00
 6 PARKER-OKOJIE,  GABRIELLE… SENI… ADMIN HEA…         96636 2004-06-15 00:00:00
 7 RIZZO,  ANTHONY J          SENI… ADMIN HEA…         96636 1997-12-08 00:00:00
 8 WEINERT,  DARCI N          SENI… ADMIN HEA…         96636 2003-03-17 00:00:00
 9 RIZZO,  MARGARET A         ADMI… ADMIN HEA…         93300 1975-07-01 00:00:00
10 SMITH,  PAMELA M           ASST… ADMIN HEA…         93300 1988-07-18 00:00:00
# ℹ 16,389 more rows
# ℹ 4 more variables: start_date_in_present_position <dttm>,
#   salary_basis <chr>, employment_category <chr>, avg_salary <dbl>
…
FAMILY & SUPPORT
625
32806
1.9

df %>% 
  group_by(department) %>% 
  count() %>% 
  ungroup() %>% 
  mutate(ttl_employees = sum(n),
         pct_employees = round((n / ttl_employees) * 100, 1)) %>% 
  arrange(-pct_employees)

# A tibble: 36 × 4
   department                  n ttl_employees pct_employees
   <chr>                   <int>         <int>         <dbl>
 1 POLICE                  13055         32806          39.8
 2 FIRE                     4833         32806          14.7
 3 OEMC                     2121         32806           6.5
 4 STREETS & SAN            2045         32806           6.2
 5 WATER MGMNT              1902         32806           5.8
 6 AVIATION                 1414         32806           4.3
 7 TRANSPORTN               1244         32806           3.8
 8 PUBLIC LIBRARY            978         32806           3  
 9 FLEET AND FACILITY MGMT   964         32806           2.9
10 FAMILY & SUPPORT          625         32806           1.9
# ℹ 26 more rows
…
CROSSING GUARD
464

CONSTRUCTION LABORER
456

df %>% 
  group_by(title) %>% 
  count() %>% 
  filter(n > 100) %>% 
  arrange(-n)

# A tibble: 46 × 2
# Groups:   title [46]
   title                                      n
   <chr>                                  <int>
 1 POLICE OFFICER                          9213
 2 FIREFIGHTER-EMT                         1492
 3 SERGEANT                                1162
 4 POLICE OFFICER (ASSIGNED AS DETECTIVE)  1015
 5 MOTOR TRUCK DRIVER                       709
 6 POOL MOTOR TRUCK DRIVER                  693
 7 SANITATION LABORER                       634
 8 FIREFIGHTER                              533
 9 CROSSING GUARD                           464
10 CONSTRUCTION LABORER                     456
# ℹ 36 more rows
…
Find employees who have been in their current position for more than 5 years (assuming the dataset includes a hire date or a similar field).

Note: need to do some more research on the DBI:: package, as the SQL object is reading date fields in as a dbl data type.

df %>% 
  mutate(tenure = round(
    lubridate::time_length(
    today() - lubridate::as_date(start_date_in_present_position), "year"),
    1)) %>% 
  filter(tenure > 5) %>% 
  arrange(-tenure)

# A tibble: 32,806 × 9
   name                title        department salary_annual original_hire_date 
   <chr>               <chr>        <chr>              <dbl> <dttm>             
 1 LANNON,  JOHN P     CONSTRUCTIO… WATER MGM…        83616  1963-07-02 00:00:00
 2 WILLIAMS,  DAISY    CROSSING GU… OEMC              23254. 1965-12-06 00:00:00
 3 CALHOUN,  ROCKELL H CROSSING GU… OEMC              23254. 1968-03-25 00:00:00
 4 SCOTT,  ROSIE M     PARKING ENF… FINANCE           64392  1968-08-19 00:00:00
 5 BURKE,  CATHERINE   CROSSING GU… OEMC              23254. 1970-05-13 00:00:00
 6 BISHOP,  DORIS J    LIBRARY ASS… PUBLIC LI…        69492  1971-09-07 00:00:00
 7 LUMPKIN,  STEPHEN   SANITATION … STREETS &…        75317. 1972-03-11 00:00:00
 8 KUCHARSKI,  JOYCE M CROSSING GU… OEMC              23254. 1973-09-17 00:00:00
 9 CORSO JR,  JOHN J   PROPERTY CU… POLICE            70092  1975-05-27 00:00:00
10 PHILLIPS,  EUGENIA  CROSSING GU… OEMC              23254. 1976-01-12 00:00:00
# ℹ 32,796 more rows
# ℹ 4 more variables: start_date_in_present_position <dttm>,
#   salary_basis <chr>, employment_category <chr>, tenure <dbl>
…
BROWN, PATRICK J
POLICE OFFICER (ASSIGNED AS DETECTIVE)
POLICE
1429142400
2

df %>% 
  group_by(name) %>% 
  arrange(start_date_in_present_position) %>% 
  mutate(seq_promotion = row_number()) %>% 
  filter(seq_promotion == 2) %>% 
  arrange(name)

# A tibble: 284 × 9
# Groups:   name [284]
   name                title        department salary_annual original_hire_date 
   <chr>               <chr>        <chr>              <dbl> <dttm>             
 1 ADE,  JAMES P       POLICE OFFI… POLICE            84054  2010-09-01 00:00:00
 2 ANDERSON,  DAVID C  PROJECTS AD… BUILDINGS         94824  2014-02-24 00:00:00
 3 ANDERSON,  DONALD   PROJECT MAN… AVIATION          80868  1987-08-04 00:00:00
 4 ANDERSON,  RHONDA M SERGEANT     POLICE           104628  2000-02-28 00:00:00
 5 ARROYO,  FRANCISCO  WARD SUPERI… STREETS &…        73212  2015-05-18 00:00:00
 6 ATECA,  SALVADOR R  MACHINIST (… FLEET AND…        96408  2015-03-03 00:00:00
 7 BIANCHI,  MICHAEL J FIRE COMMUN… OEMC              51264  2017-08-16 00:00:00
 8 BRACKEN,  DANIEL J  PARAMEDIC    FIRE              76266  2014-12-16 00:00:00
 9 BROWN,  ANTHONY     GENERAL LAB… STREETS &…        43202. 2014-07-14 00:00:00
10 BROWN,  PATRICK J   POLICE OFFI… POLICE            97440  1999-03-08 00:00:00
# ℹ 274 more rows
# ℹ 4 more variables: start_date_in_present_position <dttm>,
#   salary_basis <chr>, employment_category <chr>, seq_promotion <int>
…
