Part One: Exploring child poverty data with the tidycensus R package
…
To start, I am interested in reviewing the most stable, geographically-available data on child poverty. Given that I’m less concerned with recency and more interested in broad availability, the ACS 5-year estimates are what I’ll use here.

Initial tour of key tidycensus::get_acs() function

The tidycensus:: package has so much to offer (and I still have plenty to learn!). The tidycensus::load_variables() function provides a simple way to query the available data within each survey. Combining this with stringr::str_detect() is a nice way to search through the tens of thousands of data series that are available through the U.S. Census API.

load_variables(2022, "acs5", cache = TRUE) %>% 
6  filter(str_detect(label, "Under 5 years"))

6

This searches all variable labels for “Under 5 years” to help identify data of interest.

# A tibble: 240 × 4
   name        label                                    concept        geography
   <chr>       <chr>                                    <chr>          <chr>    
 1 B01001A_003 Estimate!!Total:!!Male:!!Under 5 years   Sex by Age (W… tract    
 2 B01001A_018 Estimate!!Total:!!Female:!!Under 5 years Sex by Age (W… tract    
 3 B01001B_003 Estimate!!Total:!!Male:!!Under 5 years   Sex by Age (B… tract    
 4 B01001B_018 Estimate!!Total:!!Female:!!Under 5 years Sex by Age (B… tract    
 5 B01001C_003 Estimate!!Total:!!Male:!!Under 5 years   Sex by Age (A… tract    
 6 B01001C_018 Estimate!!Total:!!Female:!!Under 5 years Sex by Age (A… tract    
 7 B01001D_003 Estimate!!Total:!!Male:!!Under 5 years   Sex by Age (A… tract    
 8 B01001D_018 Estimate!!Total:!!Female:!!Under 5 years Sex by Age (A… tract    
 9 B01001E_003 Estimate!!Total:!!Male:!!Under 5 years   Sex by Age (N… tract    
10 B01001E_018 Estimate!!Total:!!Female:!!Under 5 years Sex by Age (N… tract    
# ℹ 230 more rows
…
