Experimenting with distance as a concept for SDG achievement
…
(df <- read_csv('.//data/IFs_results_02apr2019.csv') %>% 
   filter(scenario == '00CP_adj_ADB') %>% 
   select(1:5, `2015`, `2020`, `2030`, `2063`))

Rows: 1458 Columns: 111
── Column specification ────────────────────────────────────────────────────────
Delimiter: ","
chr  (5): variable, country, unit, dim, scenario
dbl (89): 1960, 1961, 1962, 1963, 1964, 1965, 1966, 1967, 1968, 1969, 1970, ...
num (17): 1990, 1991, 1992, 1993, 1994, 1995, 1996, 1997, 1998, 1999, 2000, ...

ℹ Use `spec()` to retrieve the full column specification for this data.
ℹ Specify the column types or set `show_col_types = FALSE` to quiet this message.

# A tibble: 486 × 9
   variable  country  unit       dim   scenario     `2015` `2020` `2030` `2063`
   <chr>     <chr>    <chr>      <chr> <chr>         <dbl>  <dbl>  <dbl>  <dbl>
 1 DeathRate Algeria  TrafficAcc Total 00CP_adj_ADB 0.268  0.271  0.284   0.337
 2 DeathRate Algeria  AIDS       Total 00CP_adj_ADB 0.005  0.008  0.005   0.001
 3 DeathRate Algeria  Malaria    Total 00CP_adj_ADB 0.0002 0.0002 0.0001  0    
 4 DeathRate Angola   TrafficAcc Total 00CP_adj_ADB 0.386  0.37   0.402   0.525
 5 DeathRate Angola   AIDS       Total 00CP_adj_ADB 0.395  0.314  0.198   0.021
 6 DeathRate Angola   Malaria    Total 00CP_adj_ADB 0.52   0.512  0.375   0.052
 7 DeathRate Benin    TrafficAcc Total 00CP_adj_ADB 0.213  0.219  0.229   0.387
 8 DeathRate Benin    AIDS       Total 00CP_adj_ADB 0.274  0.203  0.111   0.007
 9 DeathRate Benin    Malaria    Total 00CP_adj_ADB 1.21   0.808  0.424   0.083
10 DeathRate Botswana TrafficAcc Total 00CP_adj_ADB 0.174  0.177  0.183   0.192
# ℹ 476 more rows

(df_scaled_dist_results <- df %>% 
  filter(variable %in% c('MATMORTRATIO', 'NEONATMOR', 'CHILDDTHR') | 
         unit %in% c('AIDS', 'Malaria')) %>% 
  mutate(variable = ifelse(unit %in% c('AIDS', 'Malaria'), as.character(unit), as.character(variable))) %>% 
  select(variable, country, `2030`) %>% 
  spread(variable, `2030`) %>% 
  #add targets as row by reshaping the targets dataframe
  bind_rows(., 
            sdg_targets %>%
              spread(variable, `2030`)) %>% 
  mutate_at(vars(AIDS:NEONATMOR), funs(scale(.))) %>% 
  select(-c(7:8)))

# A tibble: 55 × 6
   country     AIDS[,1] CHILDDTHR[,1] Malaria[,1] MATMORTRATIO[,1] NEONATMOR[,1]
   <chr>          <dbl>         <dbl>       <dbl>            <dbl>         <dbl>
 1 Algeria       -0.812      -1.04        -0.785            -1.04        -0.440 
 2 Angola        -0.340       1.22         0.363             0.417        3.07  
 3 Benin         -0.553       0.475        0.513            -0.117        0.0158
 4 Botswana       1.29       -0.708       -0.766            -1.20        -0.126 
 5 Burkina Fa…   -0.648       0.386        1.16             -0.227       -0.182 
 6 Burundi       -0.575       0.00822     -0.0256            1.11        -0.212 
 7 Cameroon       0.432       0.805        1.29              0.683        0.376 
 8 Cape Verde    -0.294      -1.27        -0.784            -1.46        -0.971 
 9 Central AfR    0.569       1.73         0.501             1.63         1.32  
10 Chad          -0.558       2.78         0.648             1.78         2.14  
# ℹ 45 more rows
…
Warning: `funs()` was deprecated in dplyr 0.8.0.
ℹ Please use a list of either functions or lambdas:

# Simple named list: list(mean = mean, median = median)

# Auto named with `tibble::lst()`: tibble::lst(mean, median)

# Using lambdas list(~ mean(., trim = .2), ~ median(., na.rm = TRUE))

# A tibble: 55 × 3
   country      NonCommun[,1] TrafficAcc[,1]
   <chr>                <dbl>          <dbl>
 1 Algeria              1.52          0.0612
 2 Angola              -0.304        -0.570 
 3 Benin               -0.518         0.265 
 4 Botswana             1.66          0.134 
 5 Burkina Faso        -0.640         0.306 
 6 Burundi             -0.928        -1.03  
 7 Cameroon            -0.761         0.319 
 8 Cape Verde          -0.388         0.539 
 9 Central AfR         -0.497        -0.0730
10 Chad                -0.974        -0.452 
# ℹ 45 more rows
…
Setting order by distance from achievement

# A tibble: 54 × 2
   country               avg_val
   <chr>                   <dbl>
 1 Libya                  -0.703
 2 Sao Tome and Principe  -0.677
 3 Cape Verde             -0.661
 4 Seychelles             -0.635
 5 Egypt                  -0.630
 6 Tunisia                -0.552
 7 Senegal                -0.453
 8 Niger                  -0.387
 9 Eritrea                -0.373
10 Algeria                -0.363
# ℹ 44 more rows
(dist_plot_df <- df_scaled_dist_results %>% 
  filter(country != 'TARGET') %>% 
  left_join(x=.,
            y=df_scaled_dist_results_rel_targets,
            by='country') %>% 
  left_join(x=.,
            y=cntry_order,
            by='country') %>% 
  arrange(-avg_val) %>% 
  gather(var, val, 2:8))

Warning: attributes are not identical across measure variables; they will be
dropped

# A tibble: 378 × 4
   country     avg_val var        val
   <chr>         <dbl> <chr>    <dbl>
 1 Nigeria       1.15  AIDS  -0.00515
 2 Somalia       0.922 AIDS  -0.711  
 3 Equa Guinea   0.843 AIDS   0.902  
 4 Chad          0.766 AIDS  -0.558  
 5 Central AfR   0.741 AIDS   0.569  
 6 SierraLeo     0.610 AIDS  -0.372  
 7 Lesotho       0.610 AIDS   3.90   
 8 Angola        0.551 AIDS  -0.340  
 9 Sudan South   0.527 AIDS   1.02   
10 Cameroon      0.449 AIDS   0.432  
# ℹ 368 more rows
…
targ_cols <- c('AIDS' = "#E69F00", 
               'CHILDDTHR' = "#56B4E9",
               'Malaria' = "#009E73",
               'MATMORTRATIO' = "#F0E442",
               'NEONATMOR' = "#0072B2",
               'NonCommun' = "#D55E00",
               'TrafficAcc' = "#CC79A7")

(dist_plot_df_2 <- dist_plot_df %>% 
  left_join(x=.,
            y=df_target_scaled_vals,
            by='var'))

# A tibble: 378 × 5
   country     avg_val var        val target
   <chr>         <dbl> <chr>    <dbl>  <dbl>
 1 Nigeria       1.15  AIDS  -0.00515 -0.821
 2 Somalia       0.922 AIDS  -0.711   -0.821
 3 Equa Guinea   0.843 AIDS   0.902   -0.821
 4 Chad          0.766 AIDS  -0.558   -0.821
 5 Central AfR   0.741 AIDS   0.569   -0.821
 6 SierraLeo     0.610 AIDS  -0.372   -0.821
 7 Lesotho       0.610 AIDS   3.90    -0.821
 8 Angola        0.551 AIDS  -0.340   -0.821
 9 Sudan South   0.527 AIDS   1.02    -0.821
10 Cameroon      0.449 AIDS   0.432   -0.821
# ℹ 368 more rows

(seg_length <- dist_plot_df_2 %>% 
  mutate(achieve = ifelse(val <= target, 1, 0)) %>% 
  filter(achieve == 0) %>% 
  group_by(country) %>% 
  summarise(min_val = min(val),
            max_val = max(val)))

# A tibble: 54 × 3
   country      min_val max_val
   <chr>          <dbl>   <dbl>
 1 Algeria       -1.04    1.52 
 2 Angola        -0.570   3.07 
 3 Benin         -0.553   0.513
 4 Botswana      -0.766   1.66 
 5 Burkina Faso  -0.648   1.16 
 6 Burundi       -1.03    1.11 
 7 Cameroon      -0.761   1.29 
 8 Cape Verde    -0.388   0.539
 9 Central AfR   -0.497   1.73 
10 Chad          -0.974   2.78 
# ℹ 44 more rows
…
