PART TWO: Data Manipulation and Visualization Basics using R
…
Justice Kennedy has a reputation as being the swing voter on the Supreme Court. How might you test this conventional wisdom with this dataset? (hint: you might consider using the majVotes and minVotes variables for this question)

sup_court %>% 
  filter(majVotes == 5,
         minVotes == 4) %>% 
  group_by(justiceName, majorityName) %>% 
  summarise(count_cases = n()) %>% 
  mutate(perc_cases = round(count_cases / sum(count_cases) * 100, 1)) %>% 
  arrange(desc(perc_cases))

`summarise()` has grouped output by 'justiceName'. You can override using the
`.groups` argument.

# A tibble: 74 × 4
# Groups:   justiceName [37]
   justiceName majorityName count_cases perc_cases
   <chr>       <chr>              <int>      <dbl>
 1 AJGoldberg  majority              30       78.9
 2 AMKennedy   majority             390       76  
 3 FMVinson    majority              81       71.1
 4 SFReed      majority              99       68.8
 5 LFPowell    majority             280       68.1
 6 NMGorsuch   majority               2       66.7
 7 SDOConnor   majority             352       66.2
 8 WEBurger    majority             260       65.5
 9 TCClark     majority             167       65.2
10 BRWhite     majority             431       64.5
# ℹ 64 more rows

Which justice has heard the most Supreme Court Cases since 1946? (hint: the justice is the primary unit of analysis)

sup_court %>% 
  group_by(justiceName) %>% 
  summarise(count_cases = n()) %>% 
  arrange(desc(count_cases))

# A tibble: 37 × 2
   justiceName count_cases
   <chr>             <int>
 1 WJBrennan          5325
 2 BRWhite            4943
 3 WHRehnquist        4529
 4 JPStevens          4260
 5 WODouglas          4001
 6 TMarshall          3879
 7 HABlackmun         3768
 8 PStewart           3590
 9 HLBlack            3302
10 SDOConnor          2910
# ℹ 27 more rows

What are the trends in the types of case heard by term? What is the trend in civil rights cases – compared with other issue areas – over time? (hint: BY term and issue area)

(sup_court_term_issue <- sup_court %>% 
  group_by(term, issueAreaName) %>% 
  summarise(count_cases = n()) %>% 
  arrange(term, desc(count_cases)))

`summarise()` has grouped output by 'term'. You can override using the
`.groups` argument.

# A tibble: 807 × 3
# Groups:   term [71]
    term issueAreaName        count_cases
   <int> <chr>                      <int>
 1  1946 Economic Activity            432
 2  1946 Judicial Power               189
 3  1946 Criminal Procedure           171
 4  1946 Unions                       126
 5  1946 Federal Taxation              90
 6  1946 First Amendment               72
 7  1946 Civil Rights                  63
 8  1946 Federalism                    54
 9  1946 Interstate Relations          36
10  1946 Due Process                   27
# ℹ 797 more rows
…
