Tidy Tuesday: Week 38, 2019
…
Annual, bump chart

(df_annual <- df %>% 
  filter(year != 'Total',
         unit_type == 'National Park') %>% 
  mutate(year = as.numeric(year)) %>% 
  mutate(decade = as.factor(year - (year %% 10))) %>% 
  arrange(year) %>% 
  group_by(year) %>% 
  mutate(annual_visitor_rank = as.integer(rank(-visitors))) %>% 
  select(annual_visitor_rank, year, unit_name, visitors, everything()) %>% 
  arrange(year, annual_visitor_rank) %>% 
  ungroup())

# A tibble: 4,682 × 14
   annual_visitor_rank  year unit_name        visitors gnis_id geometry metadata
                 <int> <dbl> <chr>               <dbl>   <dbl> <chr>    <chr>   
 1                   1  1904 Hot Springs Nat…   101000   56796 MULTIPO… http://…
 2                   2  1904 Yellowstone Nat…    13727 1609331 POLYGON  http://…
 3                   3  1904 Wind Cave Natio…     2900 1263056 MULTIPO… http://…
 4                   4  1904 Crater Lake Nat…     1500 1163670 POLYGON  <NA>    
 5                   5  1904 Kings Canyon Na…     1000  255948 MULTIPO… http://…
 6                   6  1904 Mount Rainier N…      563 1528416 MULTIPO… http://…
 7                   1  1905 Hot Springs Nat…   109000   56796 MULTIPO… http://…
 8                   2  1905 Yellowstone Nat…    26188 1609331 POLYGON  http://…
 9                   3  1905 Wind Cave Natio…     2438 1263056 MULTIPO… http://…
10                   4  1905 Crater Lake Nat…     1400 1163670 POLYGON  <NA>    
# ℹ 4,672 more rows
# ℹ 7 more variables: number_of_records <dbl>, parkname <chr>, region <chr>,
#   state <chr>, unit_code <chr>, unit_type <chr>, decade <fct>
…
(df_annual <- df_annual %>% 
  separate(col=unit_name, into = c("parkname_full", "parktype"), sep = "National Park",
           remove=FALSE))

Warning: Expected 2 pieces. Missing pieces filled with `NA` in 95 rows [208, 229, 252,
275, 297, 319, 341, 365, 390, 415, 442, 469, 497, 528, 561, 594, 629, 664, 703,
741, ...].

# A tibble: 4,682 × 16
   annual_visitor_rank  year unit_name   parkname_full parktype visitors gnis_id
                 <int> <dbl> <chr>       <chr>         <chr>       <dbl>   <dbl>
 1                   1  1904 Hot Spring… "Hot Springs… ""         101000   56796
 2                   2  1904 Yellowston… "Yellowstone… ""          13727 1609331
 3                   3  1904 Wind Cave … "Wind Cave "  ""           2900 1263056
 4                   4  1904 Crater Lak… "Crater Lake… ""           1500 1163670
 5                   5  1904 Kings Cany… "Kings Canyo… ""           1000  255948
 6                   6  1904 Mount Rain… "Mount Raini… ""            563 1528416
 7                   1  1905 Hot Spring… "Hot Springs… ""         109000   56796
 8                   2  1905 Yellowston… "Yellowstone… ""          26188 1609331
 9                   3  1905 Wind Cave … "Wind Cave "  ""           2438 1263056
10                   4  1905 Crater Lak… "Crater Lake… ""           1400 1163670
# ℹ 4,672 more rows
# ℹ 9 more variables: geometry <chr>, metadata <chr>, number_of_records <dbl>,
#   parkname <chr>, region <chr>, state <chr>, unit_code <chr>,
#   unit_type <chr>, decade <fct>
…
# ggsave(".//visualizations/12-30-2022-tt-wk38-2019/plot_viz_538.png", plot_viz_538,
#        width = 12, height = 8, dpi = 300)

Modern vs. Premodern

(df_premodern <- df_annual %>%
  filter(year <= 1966))

# A tibble: 1,803 × 16
   annual_visitor_rank  year unit_name   parkname_full parktype visitors gnis_id
                 <int> <dbl> <chr>       <chr>         <chr>       <dbl>   <dbl>
 1                   1  1904 Hot Spring… "Hot Springs… ""         101000   56796
 2                   2  1904 Yellowston… "Yellowstone… ""          13727 1609331
 3                   3  1904 Wind Cave … "Wind Cave "  ""           2900 1263056
 4                   4  1904 Crater Lak… "Crater Lake… ""           1500 1163670
 5                   5  1904 Kings Cany… "Kings Canyo… ""           1000  255948
 6                   6  1904 Mount Rain… "Mount Raini… ""            563 1528416
 7                   1  1905 Hot Spring… "Hot Springs… ""         109000   56796
 8                   2  1905 Yellowston… "Yellowstone… ""          26188 1609331
 9                   3  1905 Wind Cave … "Wind Cave "  ""           2438 1263056
10                   4  1905 Crater Lak… "Crater Lake… ""           1400 1163670
# ℹ 1,793 more rows
# ℹ 9 more variables: geometry <chr>, metadata <chr>, number_of_records <dbl>,
#   parkname <chr>, region <chr>, state <chr>, unit_code <chr>,
#   unit_type <chr>, decade <fct>

(df_modern <- df_annual %>% 
  filter(year > 1966))

# A tibble: 2,879 × 16
   annual_visitor_rank  year unit_name   parkname_full parktype visitors gnis_id
                 <int> <dbl> <chr>       <chr>         <chr>       <dbl>   <dbl>
 1                   1  1967 Great Smok… "Great Smoky… ""        6710100 1018241
 2                   2  1967 Grand Teto… "Grand Teton… ""        2643700 1597571
 3                   3  1967 Yosemite N… "Yosemite "   ""        2238300  255923
 4                   4  1967 Yellowston… "Yellowstone… ""        2210000 1609331
 5                   5  1967 Shenandoah… "Shenandoah " ""        2133100 1488805
 6                   6  1967 Acadia Nat… "Acadia "     ""        2102000  578853
 7                   7  1967 Hot Spring… "Hot Springs… ""        1981300   56796
 8                   8  1967 Rocky Moun… "Rocky Mount… ""        1915200  204948
 9                   9  1967 Olympic Na… "Olympic "    ""        1905300 1530459
10                  10  1967 Mount Rain… "Mount Raini… ""        1805900 1528416
# ℹ 2,869 more rows
# ℹ 9 more variables: geometry <chr>, metadata <chr>, number_of_records <dbl>,
#   parkname <chr>, region <chr>, state <chr>, unit_code <chr>,
#   unit_type <chr>, decade <fct>
…
`summarise()` has grouped output by 'decade', 'unit_name'. You can override
using the `.groups` argument.

Warning: Expected 2 pieces. Missing pieces filled with `NA` in 10 rows [32, 62, 99, 140,
186, 235, 290, 350, 410, 471].

# A tibble: 515 × 7
   decade unit_name            parkname_full parktype .groups visitors_by_decade
    <dbl> <chr>                <chr>         <chr>    <lgl>                <dbl>
 1   1900 Crater Lake Nationa… "Crater Lake… ""       TRUE                 16746
 2   1900 Hot Springs Nationa… "Hot Springs… ""       TRUE                210000
 3   1900 Kings Canyon Nation… "Kings Canyo… ""       TRUE                  6571
 4   1900 Mesa Verde National… "Mesa Verde " ""       TRUE                   245
 5   1900 Mount Rainier Natio… "Mount Raini… ""       TRUE                 14139
 6   1900 Sequoia National Pa… "Sequoia "    ""       TRUE                  3705
 7   1900 Wind Cave National … "Wind Cave "  ""       TRUE                 17263
 8   1900 Yellowstone Nationa… "Yellowstone… ""       TRUE                125598
 9   1900 Yosemite National P… "Yosemite "   ""       TRUE                 34548
10   1910 Acadia National Park "Acadia "     ""       TRUE                 64000
# ℹ 505 more rows
# ℹ 1 more variable: rank_visitors_by_decade <int>
…
# ggsave("./graphics/plot_viz_decade_bump.png", plot_viz_decade_bump,
#        width = 12, height = 8, dpi = 300)

2010 to present

(df_recent_all_types <- df %>% 
  filter(year != 'Total') %>% 
  mutate(year = as.numeric(year)) %>% 
  filter(year >= 2010,
         !unit_type %in% c('Parkway', 'National Parkway')) %>% 
  group_by(year) %>% 
  mutate(rank_annual_visitors = as.integer(rank(-visitors))) %>% 
  arrange(year, rank_annual_visitors))

# A tibble: 2,578 × 13
# Groups:   year [7]
    year gnis_id geometry     metadata   number_of_records parkname region state
   <dbl>   <dbl> <chr>        <chr>                  <dbl> <chr>    <chr>  <chr>
 1  2010  255952 MULTIPOLYGON http://nr…                 1 Golden … PW     CA   
 2  2010 1018241 MULTIPOLYGON <NA>                       1 <NA>     SE     NC   
 3  2010  882894 MULTIPOLYGON http://nr…                 1 Gateway  NE     NY   
 4  2010  858265 MULTIPOLYGON http://nr…                 1 Lake Me… PW     NV   
 5  2010  531835 POLYGON      http://nr…                 1 Lincoln… NC     DC   
 6  2010 1193711 POLYGON      <NA>                       1 <NA>     NE     PA   
 7  2010  606900 POLYGON      http://nr…                 1 Cape Cod NE     MA   
 8  2010  531832 POLYGON      http://nr…                 1 Vietnam… NC     DC   
 9  2010   23866 POLYGON      http://nr…                 1 Grand C… IM     AZ   
10  2010  689020 MULTIPOLYGON http://nr…                 1 Gulf Is… SE     FL   
# ℹ 2,568 more rows
# ℹ 5 more variables: unit_code <chr>, unit_name <chr>, unit_type <chr>,
#   visitors <dbl>, rank_annual_visitors <int>
…
