Part Two: Exploring the tidycensus R package
…
colnames(df) <- name_cols

And for this exercise, I’ll also drop the margin of error fields, since I’m not doing a statistical analysis that would require it.

df <- df %>% 
  select(-contains("moe"))

Next, I’ll create some fields to combine gender-based poverty estimates and calculate a percent of the child population measure.

(df <- df %>% 
  mutate(u5_pop_total = u5_male_estimate + u5_female_estimate,
         u5_pov_total = u5_male_pov_estimate + u5_female_pov_estimate,
         u5_perc_in_poverty = u5_pov_total / u5_pop_total))

# A tibble: 3,221 × 9
   geoid county_state   u5_male_estimate u5_female_estimate u5_male_pov_estimate
   <chr> <chr>                     <dbl>              <dbl>                <dbl>
 1 01001 Autauga Count…             1783               1535                  280
 2 01003 Baldwin Count…             6121               5914                  468
 3 01005 Barbour Count…              647                673                  381
 4 01007 Bibb County, …              603                593                  120
 5 01009 Blount County…             1818               1649                  302
 6 01011 Bullock Count…              283                275                   37
 7 01013 Butler County…              527                560                   71
 8 01015 Calhoun Count…             3360               3356                  961
 9 01017 Chambers Coun…             1034               1022                  236
10 01019 Cherokee Coun…              585                504                  167
# ℹ 3,211 more rows
# ℹ 4 more variables: u5_female_pov_estimate <dbl>, u5_pop_total <dbl>,
#   u5_pov_total <dbl>, u5_perc_in_poverty <dbl>
…
